-0x1.e5c0c20c3fa18p+989 68870664 68870664
-0x1.3f12e2af0f65ap+953 851383712 851383712
-0x1.dff90c71581fbp+914 409577176 411350816
-0x1.8c66e23e5d88cp+877 902282464 902282464
-0x1.77e7370f988a5p+837 1122194672 1122194672
-0x1.c1a3dad2a4626p+798 2118347408 2118347408
-0x1.792fa1b5608ddp+761 2686264688 2686264688
-0x1.0559c53756253p+721 800460384 800460384
-0x1.46b1e5248c237p+680 1965634264 1965634264
-0x1.0e7f7b9ebfc72p+640 390886104 390886104
-0x1.b7abf240922e2p+599 928931744 928931744
-0x1.19c3a9d02f9bdp+559 1598308656 1598308656
-0x1.4ff74fb9237bp+518 93846112 93846112
-0x1.0476fdc37302fp+480 1132104920 1132104920
-0x1.661b99ba59f22p+438 1010153344 1010153344
-0x1.479cafac124d2p+396 1913549784 1913549784
-0x1.ed21c737dcdb5p+354 1605508448 1605508448
-0x1.592b7d8b5df8dp+312 1656992816 1656992816
-0x1.0116d96a4e016p+270 483267736 483267736
-0x1.2377ccd5d3795p+230 513496536 513496536
-0x1.fe9e997e0e7b5p+187 811840488 811840488
-0x1.63042fc85e8bfp+145 212486256 212486256
-0x1.5308646fca906p+104 2006887392 2006887392
-0x1.6eee8c6626c3fp+62 2328016136 2328016136
-0x1.935eb99fc54edp+20 901113792 901113792
-0x1.450ee89545917p-18 1664817584 1664817584
-0x1.5179ee116871cp-58 2391338432 2391338432
-0x1.de33fc9192233p-100 2049501616 2049501616
-0x1.488ce2e1eb9a3p-141 855633200 855633200
-0x1.b23504ecdaafbp-184 2163348472 2163348472
-0x1.3f43b56fc450ap-226 689683632 689683632
-0x1.8cbde04f81228p-268 435831320 435831320
-0x1.26706de2154ecp-310 2364329168 2364329168
-0x1.ccd8fe4147375p-354 2760662432 2760662432
-0x1.c2ff32a6a2cebp-397 1611678232 1611678232
-0x1.27c15c54059f9p-440 2048266960 2048266960
-0x1.13b41e8343823p-483 412183496 412183496
-0x1.c793392f2c783p-525 660078632 660078632
-0x1.e673b9abf7ebep-566 385668456 385668456
-0x1.0d3e762c37e4ep-608 865569168 865569168
-0x1.71358ec5e16b3p-651 876011544 876011544
-0x1.3762fbd9f90c4p-694 589999112 589999112
-0x1.45e20b4c1fe1ep-737 2365951256 2365951256
-0x1.f699d6509978cp-780 2578322544 2578322544
-0x1.4b61442881348p-821 2036272736 2036272736
-0x1.886f98e059d72p-863 2128017208 2128017208
-0x1.3d26700f4f8bp-904 614646728 614646728
-0x1.74704de022c13p-947 2339610808 2339610808
-0x1.209b8c21389ffp-989 185297888 185297888
0x1.8881b073da013p-1022 2284411376 2284411376
0x1.4c93e7e43c87ap-993 2545651648 2545651648
0x1.7090dbf2b6102p-958 1515247824 1515247824
0x1.be387226d54a9p-918 1572186952 1572186952
0x1.96ed2a8846d17p-878 1554638760 1554638760
0x1.7307ce8039dp-836 1558631472 1558631472
0x1.e7b05fac13f32p-796 1490013808 1490013808
0x1.e46bdfc8e1f35p-758 793567072 793567072
0x1.454a413a28093p-717 2316741640 2316741640
0x1.4ab0dbf66a107p-675 126653944 126653944
0x1.3f53f30a81039p-635 1086877080 1086877080
0x1.177ecb6dc43c8p-593 242266864 242266864
0x1.d4b57c950996bp-553 1849428216 1849428216
0x1.7b8a67945522dp-514 2686015896 2686015896
0x1.53445f79a100ep-473 2120561496 2120561496
0x1.587c06faf21a6p-431 601666888 601666888
0x1.cc5653b41ad04p-389 2594085648 2594085648
0x1.efbcebf1bf3cfp-347 394385920 394385920
0x1.b785dc5782815p-304 100679648 100679648
0x1.a21010f58ac21p-263 1414757136 1414757136
0x1.aab63e9fab9a8p-223 2437157232 2437157232
0x1.3ac67da94c629p-180 1516153080 1516153080
0x1.ffbbed57b0cdep-138 803477952 803477952
0x1.229a8d3ba61d9p-96 1637030432 1637030432
0x1.38b9800fb1df4p-55 1937106728 1937106728
0x1.23688a6d5b6bbp-15 24620600 24620600
0x1.dbf16095e59c1p+24 1254542424 1254542424
0x1.8e3a3092880ap+67 1450937424 1450937424
0x1.3871176aed4e1p+110 618041368 618041368
0x1.ea528207f6dbp+150 40599856 40599856
0x1.0408b4410408bp+194 2297106312 2297106312
0x1.bc98e2a80c237p+236 1111333848 1111333848
0x1.57630b9973779p+278 1366875592 1366875592
0x1.49a7057ea10ecp+321 1932902760 1932902760
0x1.0406ff12eefdap+365 431815328 431815328
0x1.631848d535dbep+407 2014660432 2014660432
0x1.252888298d43bp+450 596565416 596565416
0x1.274e40fe2bc7p+492 2632020800 2632020800
0x1.015573b4aa5cdp+532 2543430984 2543430984
0x1.4993417f9a677p+574 1876025136 1876025136
0x1.a69b76fbc1613p+616 2003023680 2003023680
0x1.7395c67c9cea6p+658 1346988408 1346988408
0x1.8f4521b812941p+701 2107278720 2107278720
0x1.972705f766564p+743 2304415808 2304415808
0x1.3268f549b079ap+784 559072904 559072904
0x1.cd61f731fc542p+825 588917664 588917664
0x1.6b35b981c1e15p+866 2432976008 2432976008
0x1.e9de305b6a92ep+906 2641548536 2641548536
0x1.8a05cf86d0d6bp+947 2554910912 2554910912
0x1.d1699513f2c3fp+986 1426919376 1426919376
